San Lorenzo 444, Mendoza
-32.8929781
-68.84617070000002
Talahuano 1071, CABA
-34.5962331
-58.38561370000002
Austria 1463, CABA
-34.590843
-58.4079256
Estados Unidos 1444, CABA
-34.6188036
-58.38661579999996
Mansilla 3466, CABA
-34.5919818
-58.41365239999999
Griveo 3315, CABA
-34.5879286
-58.50942570000001
Constitución 2653, CABA
-34.6264801
-58.40225290000001
Libertador 425, San Fernando
-34.4357782
-58.56040380000002
Jose Hernandez 2248, CABA
-34.5649011
-58.45193180000001
UGARTECHE 3178, CABA
-34.5797042
-58.411523399999965
Enciso 1115, Tigre
-34.4275672
-58.57644909999999
AV chiclana 4148 casa
-34.6416933
-58.42133439999998
Humahuaca 3878, CABA
-34.6020712
-58.41900939999999